############################
#
# Pretender Events
#
# Written by Henrik Eklund
#
############################

namespace = pretender

### Ruler Dies Without Heir
country_event = {
	id = pretender.1
	title = "pretender.1.name"
	picture = GFX_evt_throne_room
	show_sound = event_conversation
	
	desc = {
		text = pretender.1.desc_01
		trigger = {
			OR = {
				has_government = despotic_empire
				has_government = star_empire
			}
		}
	}
	
	desc = {
		text = pretender.1.desc_02
		trigger = {
			OR = {
				has_government = divine_mandate
				has_government = transcendent_empire
			}
		}
	}
	
	desc = {
		text = pretender.1.desc_03
		trigger = {
			has_government = despotic_hegemony
		}
	}
	
	desc = {
		text = pretender.1.desc_04
		trigger = {
			has_government = ai_overlordship
		}
	}
	
	desc = {
		text = pretender.1.desc_05
		trigger = {
			OR = {
				has_government = enlightened_monarchy
				has_government = irenic_monarchy
			}
		}
	}
	
	is_triggered_only = yes
	
	trigger = {
		from = {
			is_same_value = root.leader
		}
		NOT = { exists = heir }
		OR = {
			has_government = despotic_empire
			has_government = star_empire
			has_government = divine_mandate
			has_government = transcendent_empire
			has_government = despotic_hegemony
			has_government = ai_overlordship
			has_government = enlightened_monarchy
			has_government = irenic_monarchy
		}
	}
	
	immediate = {
		# Unrest among the population
		every_owned_pop = {
			add_modifier = {
				modifier = "pop_troubled_succession"
				days = 480
			}
		}
		
		# Install a temp leader
		create_leader = {
			type = ruler
			species = owner_main_species
			name = random
			skill = 0
			traits = {}
		}
		assign_leader = last_created_leader
		
		# Pretender Factions
		country_event = { id = pretender.2 }
		random_list = {
			4 = {
				
			}
			1 = {
				country_event = { id = pretender.2 }				
			}
		}
	}

	option = {
		name = "UNFORTUNATE"
		custom_tooltip = pretender.1.tooltip
	}
}

# Create a pretender faction
country_event = {
	id = pretender.2
	hide_window = yes
	
	is_triggered_only = yes
	
	immediate = {
		if = {
			limit = {
				any_owned_leader = {
					NOT = { leader_class = ruler }
					#NOT = { exists = pop_faction }
				}
			}
			random_owned_leader = {
				limit = {
					NOT = { leader_class = ruler }
					#NOT = { exists = pop_faction }
				}
				save_event_target_as = pretender
			}
			else = {
				create_leader = {
					type = governor
					species = owner_main_species
					name = random
					skill = 0
					traits = {}
				}
				last_created_leader = {
					save_event_target_as = pretender
					recruitable = no
				}
			}
		}
		
		create_pop_faction = {
			type = "pretender"
			parameter:pretender = event_target:pretender
		}
		
		#last_created_pop_faction = {
		#	if = {
		#		limit = {
		#			count_pops = 0
		#		}
		#		kill_pop_faction = yes
		#	}
		#}
	}
}
